{
  "Routes": [
    // PRIVATE SERVICE (Pass authen mới được truy cập)
    {
      "DownstreamPathTemplate": "/private-api/{everything}",
      "DownstreamScheme": "https",
      "DownstreamHostAndPorts": [
        {
          "Host": "localhost",
          "Port": 8001
        }
      ],
      "UpstreamPathTemplate": "/private-gateway/{everything}",
      "UpstreamHttpMethod": [ "Get", "Post" ],
      "AuthenticationOptions": {
        "AuthenticationProviderKey": "Bearer",
        "AllowedScopes": []
      },
      "SwaggerKey": "private"
    },
    // AUTHEN SERVICE
    {
      "DownstreamPathTemplate": "/authen-api/{everything}",
      "DownstreamScheme": "https",
      "DownstreamHostAndPorts": [
        {
          "Host": "localhost",
          "Port": 7001
        }
      ],
      "UpstreamPathTemplate": "/authen-gateway/{everything}",
      "UpstreamHttpMethod": [ "Get", "Post" ],
      "SwaggerKey": "authen"
    },
    // CART SERVICE
    {
      "DownstreamPathTemplate": "/cart-api/{everything}",
      "DownstreamScheme": "https",
      "DownstreamHostAndPorts": [
        {
          "Host": "localhost",
          "Port": 6001
        }
      ],
      "UpstreamPathTemplate": "/cart-gateway/{everything}",
      "UpstreamHttpMethod": [ "Get", "Post" ],
      "RateLimitOptions": {
        "ClientWhitelist": [],
        "EnableRateLimiting": true,
        "Period": "15s",
        "PeriodTimespan": 1,
        "Limit": 1
      },
      "FileCacheOptions": {
        "TtlSeconds": 15,
        "Region": "somename"
      },
      "QoSOptions": {
        "ExceptionsAllowedBeforeBreaking": 2,
        "DurationOfBreak": 5000,
        "TimeoutValue": 2000
      },
      "SwaggerKey": "cart"
    },
    // PRODUCT SERVICE
    {
      "DownstreamPathTemplate": "/product-api/{everything}",
      "DownstreamScheme": "https",
      "DownstreamHostAndPorts": [
        {
          "Host": "localhost",
          "Port": 5001
        }
      ],
      "UpstreamPathTemplate": "/product-gateway/{everything}",
      "UpstreamHttpMethod": [ "Get" ],
      "RateLimitOptions": {
        "ClientWhitelist": [],
        "EnableRateLimiting": true,
        "Period": "15s",
        "PeriodTimespan": 1,
        "Limit": 1
      },
      "FileCacheOptions": {
        "TtlSeconds": 15,
        "Region": "somename"
      },
      "QoSOptions": {
        "ExceptionsAllowedBeforeBreaking": 2,
        "DurationOfBreak": 5000,
        "TimeoutValue": 2000
      },
      "SwaggerKey": "product"
    }
  ],
  "SwaggerEndPoints": [
    {
      "Key": "product",
      "Config": [
        {
          "Name": "product API",
          "Version": "v1",
          "Url": "https://localhost:5001/swagger/v1/swagger.json"
        }
      ]
    },
    {
      "Key": "cart",
      "Config": [
        {
          "Name": "cart API",
          "Version": "v1",
          "Url": "https://localhost:6001/swagger/v1/swagger.json"
        }
      ]
    },
    {
      "Key": "authen",
      "Config": [
        {
          "Name": "authen API",
          "Version": "v1",
          "Url": "https://localhost:7001/swagger/v1/swagger.json"
        }
      ]
    },
    {
      "Key": "private",
      "Config": [
        {
          "Name": "private API",
          "Version": "v1",
          "Url": "https://localhost:8001/swagger/v1/swagger.json"
        }
      ]
    }
  ],
  "GlobalConfiguration": {
    "BaseUrl": "https://localhost"
  }
}